module example/backend

go 1.21.4

require (
	dario.cat/mergo v1.0.0 // indirect
	github.com/bep/godartsass v1.2.0 // indirect
	github.com/bep/godartsass/v2 v2.0.0 // indirect
	github.com/bep/golibsass v1.1.1 // indirect
	github.com/bytedance/sonic v1.10.2 // indirect
	github.com/chenzhuoyu/base64x v0.0.0-20230717121745-296ad89f973d // indirect
	github.com/chenzhuoyu/iasm v0.9.1 // indirect
	github.com/cli/safeexec v1.0.1 // indirect
	github.com/cosmtrek/air v1.49.0 // indirect
	github.com/creack/pty v1.1.21 // indirect
	github.com/fatih/color v1.16.0 // indirect
	github.com/felixge/httpsnoop v1.0.3 // indirect
	github.com/fsnotify/fsnotify v1.7.0 // indirect
	github.com/gabriel-vasile/mimetype v1.4.3 // indirect
	github.com/gin-contrib/sse v0.1.0 // indirect
	github.com/gin-gonic/gin v1.9.1 // indirect
	github.com/go-playground/locales v0.14.1 // indirect
	github.com/go-playground/universal-translator v0.18.1 // indirect
	github.com/go-playground/validator/v10 v10.16.0 // indirect
	github.com/goccy/go-json v0.10.2 // indirect
	github.com/gohugoio/hugo v0.121.1 // indirect
	github.com/golang/snappy v0.0.1 // indirect
	github.com/gorilla/handlers v1.5.2 // indirect
	github.com/gorilla/mux v1.8.1 // indirect
	github.com/json-iterator/go v1.1.12 // indirect
	github.com/klauspost/compress v1.13.6 // indirect
	github.com/klauspost/cpuid/v2 v2.2.6 // indirect
	github.com/leodido/go-urn v1.2.4 // indirect
	github.com/mattn/go-colorable v0.1.13 // indirect
	github.com/mattn/go-isatty v0.0.20 // indirect
	github.com/modern-go/concurrent v0.0.0-20180306012644-bacd9c7ef1dd // indirect
	github.com/modern-go/reflect2 v1.0.2 // indirect
	github.com/montanaflynn/stats v0.0.0-20171201202039-1bf9dbcd8cbe // indirect
	github.com/pelletier/go-toml v1.9.5 // indirect
	github.com/pelletier/go-toml/v2 v2.1.0 // indirect
	github.com/spf13/afero v1.11.0 // indirect
	github.com/tdewolff/parse/v2 v2.7.6 // indirect
	github.com/twitchyliquid64/golang-asm v0.15.1 // indirect
	github.com/ugorji/go/codec v1.2.12 // indirect
	github.com/xdg-go/pbkdf2 v1.0.0 // indirect
	github.com/xdg-go/scram v1.1.2 // indirect
	github.com/xdg-go/stringprep v1.0.4 // indirect
	github.com/youmark/pkcs8 v0.0.0-20181117223130-1be2e3e5546d // indirect
	go.mongodb.org/mongo-driver v1.13.1 // indirect
	golang.org/x/arch v0.6.0 // indirect
	golang.org/x/crypto v0.16.0 // indirect
	golang.org/x/net v0.19.0 // indirect
	golang.org/x/sync v0.5.0 // indirect
	golang.org/x/sys v0.15.0 // indirect
	golang.org/x/text v0.14.0 // indirect
	google.golang.org/protobuf v1.31.0 // indirect
	gopkg.in/yaml.v3 v3.0.1 // indirect
)
